:020000041004E6
:10000000000001200D260410AD180410730E04101A
:10001000AA5555AA45554C420000000000000000BA
:10002000000000000000000000000000AF180410F5
:100030000000000000000000CB180410712504101F
:10004000C71D0410FF1D0410A7230410AB230410C8
:100050007D250410372404108F240410EB25041090
:100060002526041027260410292604102B26041008
:100070002D2604102F2604103126041033260410D8
:100080003526041037260410392604103B260410A8
:100090003D2604103F260410412604104326041078
:1000A0004526041047260410000000000000000050
:1000B0000000000000000000000000000000000040
:1000C00070B5040001D1012070BD25004035002627
:1000D0006878002803D12E70200000F013FD242042
:1000E00068702068016801229143016060681E49C0
:1000F00001402068016121681C488A6802408A60CA
:10010000E1680129A16801D1C24301E08422120201
:100110000A4321688A60E168022903D1802109012C
:100120002268516021684A68114B13434B60216873
:10013000CA681040C860206961690143A069000273
:1001400008432168C860E069216A014320680160B2
:100150002068016801220A4302606E6020206870F6
:100160002663AE70002070BDFFFFFFF0FF7FFFFF32
:1001700000800002F8B5030040335C78202C1BD1CE
:100180004024045D012C17D001241C7021245C70D4
:1001900020249C7000245C6005686E681C4F37400A
:1001A0006F6041624285418D01851849C1621949DC
:1001B00041631C70052125E00220F2BDF8B5030063
:1001C00040335C78202C1BD14024045D012C17D0D7
:1001D00001241C7022245C7020249C7000245C602C
:1001E00005686E680A4F37406F6041624285418DF5
:1001F00001850649C162074941631C70062101E07F
:100200000220F2BD00F0F9FB0020F2BD0000FFFF6C
:10021000FF7FFFFF93020410026891691268436B2D
:10022000002B00D1704780B5984701BD38B50168F3
:100230008A690B68D40508D51C0606D5446C0125CF
:100240002543456480246400CC61510509D5190615
:1002500007D5416C08240C4344648021C90004681C
:10026000E161910509D5190607D5416C02220A43BF
:100270004264802189000268D161416C0B220A40EE
:1002800001D000F017FB31BD4121405C7047406C4C
:100290007047F8B50400E06A4023E35C012B01D10C
:1002A0000220F2BD0091260040360121317009067E
:1002B000414B1500009AD2062DD5EA062BD5102207
:1002C000678D002F18D17178282907D151058842F0
:1002D00004D10099200000F0BFFA5FE0717829296D
:1002E00007D1984205D02068C261200000F041FB90
:1002F00051E02068C26151E02368DA61726804232A
:1003000013437360002801D0884247D171682000F0
:1003100000F0D0FA42E0DA43009F7F0717D56F075D
:1003200015D5618D00290CD02168496A676A39703A
:10033000616A491C6162218D89182185618D891846
:100340006185618D002929D1984227D023E0009B47
:100350001B0706D52B0704D50099200000F028F9CB
:100360001CE0009B9B0719D5AB0717D5638D002BAD
:100370000DD0606A007821688862606A401C606203
:10038000608D80186085208D8018208506E0884269
:1003900001D0002802D1200000F079F900988006F1
:1003A00005D5A80603D50099200000F0EBF9002040
:1003B0003070F2BD000000000000FFFFF8B504003F
:1003C0004020205C012801D10220F2BD26004036E9
:1003D00001203070C80610D5D0060ED51020216837
:1003E000C86170680421014371601221200000F08F
:1003F00004FB200000F0BDFA5DE08025ED01EB027A
:100400006A480F0635D5570633D521680A68402754
:10041000BA430A602168628D002A26D0496889059E
:10042000890D628DFF2A03D9FF2020855B0805E036
:10043000628D2285E26A824200D0E36A0020009049
:10044000228DD2B2200000F0C7FA608D218D401AB3
:100450006085206871782229016803D16A000A4307
:10046000026028E00D43056025E04868034012D093
:1004700015E04F0618D5570616D5618D00290ED107
:1004800021684A68134016D1E26A824203D1486863
:1004900005434D600FE0200000F0D6F80BE040214E
:1004A000200000F007FA06E0880604D5900602D581
:1004B000200000F018F900203070F2BDF8B50400FB
:1004C000E06A002500234026A65D012E01D102200E
:1004D000F2BD009101214027E155009EF6064ED560
:1004E000D6064CD51026C0273F02174044D0E26BF9
:1004F000002A04D012685268002A00D10123A16B9F
:10050000002903D009684968002901D0002B1DD0BB
:10051000210040314978282907D17105884204D14A
:100520000099200000F098F93CE021004031497822
:10053000292921D11D4988421ED02068C66120008A
:1005400000F017FA200000F0A2F82BE02168CE613D
:1005500021004031496804220A43210040314A60A9
:10056000002802D0310588421CD12000403041686B
:10057000200000F09FF915E02068C66112E00098A5
:10058000000706D5100704D50099200000F010F8E8
:1005900008E00098800605D5900603D50099200054
:1005A00000F0F0F8402025540020F2BD0000FFFFCD
:1005B000FEB507003C004034386800250821627809
:1005C00028231340282B3CD18269D203D30F6A46DB
:1005D00013708269120CFE26164082689205920DF5
:1005E0006B465A80C368FE221A406B469A80FA68AE
:1005F000022A1AD1062216405B88DB091A4096426D
:100600000BD1A268521CA260A268022A1BD1A5606D
:10061000C1612570684642880EE00421380000F070
:100620002DFA25706846828806E00421380000F023
:1006300025FA2570320068460178380000F0A0FAEB
:10064000F7BDC1612570F7BD70B5040026004036C6
:100650000025B57020207178212970700BD11120F0
:10066000206365630121200000F008FA3570200046
:1006700000F087FA70BD122020636563022120001C
:1006800000F0FCF93570200000F07CFA70BD38B540
:10069000040000254220255420003030282141222A
:1006A000A25C292A0DD14122A154212101600121FE
:1006B000200000F0E3F940202554200000F03CFB2E
:1006C00031BD4122A25C2A2A0CD14122A15422210F
:1006D00001600221200000F0D1F9402025542000C3
:1006E00000F02CFB31BDF8B5060020273068C7614B
:1006F00030684268A64B134043600024346374633F
:10070000A448F062350040351020014005D0316822
:10071000C8616868042101436960300000F029F96C
:100720000321300000F0AAF968686978602901D0D7
:10073000002804D06968300000F0BCF8F1BD68788A
:1007400021280DD16F70A8784028AC702C7003D18F
:10075000300000F017FBF1BD300000F012FAF1BDDF
:10076000687822280CD16F70A8784028AC702C7063
:1007700003D1300000F007FBF1BD300000F002FAB9
:10078000F1BD0000F2B50400206807682025C561AE
:100790000721200000F072F92068AE024168314361
:1007A0004160206841687A4A0A404260200000F0B7
:1007B000E0F8780401D5A06B02E03E4005D0E06B84
:1007C000002802D0006840686085009F042007422E
:1007D0000FD02168496A626A1170616A491C6162BE
:1007E000218D002905D06C4A89182185618D8918D1
:1007F000618526004036618D002902D0716808436A
:10080000706000202063B0706063716800290BD0B5
:100810007168200000F04EF8707828281BD139004C
:10082000200000F019F8F1BD5C49E26A8A4206D066
:10083000E16275703070200000F0A6FAF1BD7178A9
:1008400022297570307003D1200000F077FAF1BDD5
:10085000200000F071FAF1BD70B504004D48E0626F
:10086000002525632600403620207070B570656332
:100870000420014012D02168496A626A1170616ADD
:10088000491C6162218D002908D0434A89182185BD
:10089000618D8918618571680843706007212000A7
:1008A00000F0ECF810202168C8613570200000F0DD
:1008B0006BFA70BDF8B5040026004036707800254C
:1008C000B570344AE2626585726811437160202711
:1008D000282803D0292801D02A2809D10321200063
:1008E00000F0CCF82820707025632D48606309E083
:1008F0000721200000F0C2F87078602800D07770DF
:1009000025636563216827480A6852040A680ED582
:10091000254B13400B60A16B002929D088633570EB
:10092000A06B00F033FA002822D0A06B10E0120474
:1009300011D50A68274B13400B60E16B002917D0D3
:1009400088633570E06B00F021FA002810D0E06B6E
:10095000816B8847F1BD7078602805D1777035705C
:10096000200000F03AFAF1BD3570200000F0EBF9FC
:10097000F1BD00688169890701D5002181620121EB
:1009800082690A4002D18269114381617047000087
:1009900000E800FE0000FFFFFFFF00000000FFFF77
:1009A00093020410AD090410FFBFFFFF80B5806AF9
:1009B0000021826B9163C26B91634121415C60298C
:1009C00005D120214122815400F007FA01BD00F039
:1009D000BAF901BDFF7FFFFFF0B5059C00684568CF
:1009E000660D234F3743BD438905890D2943120402
:1009F0000A4313431C434460F0BDF1B581B00020AD
:100A0000019A526B00920A0012230425009E194F8E
:100A1000BE4202D0184FBE4210D1294200D0B820A9
:100A200011211140112902D10100902008431340E7
:100A3000122B16D120210143402011E0294200D081
:100A4000B820CC0702D50400F2202043890702D544
:100A50000100F42008431340122B02D10100202092
:100A60000843019909680A6810430860F3BD000053
:100A7000FF63FF03BD030410BD04041010B5002282
:100A80002823CC0706D542224124045D1C40282C93
:100A900000D0F2228C070AD51400442222434124BC
:100AA000045D2340282B02D01300B0221A434B07C9
:100AB00002D51300B8221A4311230B40112B02D187
:100AC000130090221A4312230B40122B03D1202132
:100AD000114340220A43006801689143016010BD40
:100AE00081B024490A6802430A60096808400090FE
:100AF000009801B0704780B500210020C04300F08D
:100B00008AF901BD00681C49884200D07047F8B5D9
:100B100086B00420FFF7E4FF0420FFF7E1FF802008
:100B2000800100901226019601240294002503956D
:100B30000495B7066946380000F09CF9A0030090C0
:100B400001960294039504956946380000F092F9E5
:100B5000E0050A490A6802430A60096808400590EE
:100B600005980021042000F056F9042000F057F900
:100B700007B0F0BD50004048001000415800404808
:100B8000704770477047F1B40168421841684808DF
:100B9000131800988068C9071ED5494640181BE005
:100BA0001778521C0770401C761EF9D1002C13D008
:100BB0001678521C89080D40032D01D11578521C5E
:100BC000290271184D424119A41C05D00D78491C09
:100BD0000570401C641EF9D19A420FD01178521C46
:100BE000032503260E4002D11678F61C521C0C0970
:100BF0000F2CD9D114780F34521CD5E700980C3043
:100C0000F2BC70477CB5FF21022000F037FD0028C0
:100C100000D0FEE700F04CFE002000F0C9FE0820E6
:100C20003F490A6802430A6009680840009000983A
:100C30003C4C3D4820603D4860603D48A06002203B
:100C4000E060002020616061A061E061206220001E
:100C5000FFF736FA002801D000F07FF800212000CD
:100C600000F078FF002801D000F077F80021200084
:100C700000F08DFF002801D000F06FF8012001F096
:100C800013F8022001F010F836A001F087F8294D82
:100C9000280001F083F82600E0369322310020007E
:100CA000FFF78CFA002801D000F057F82000FFF77A
:100CB000EBFA2028FAD12800343001F06FF89322A3
:100CC00021004C312000FFF755FA002801D000F038
:100CD00044F82000FFF7D8FA2028FAD1280058302D
:100CE00001F05CF8932021004C3101E0491C761C96
:100CF0000200501E12040BD00A7833789A42F5D0C5
:100D0000000405D01BA001F049F800F026F8FEE72A
:100D10001AA001F043F8012001F008F8F7E70000FD
:100D200050004048680300200010004109033210C1
:100D30000F030000C424041080B500E080B501203A
:100D400001F005F801BD80B5FFF7A1FA042803D032
:100D5000022000F0EBFFFEE701BD80B5022000F0AD
:100D6000E5FFFEE7536C61766520626F6172640A8D
:100D70000D0000004572726F720A0D004F6B0A0D74
:100D800000000000704770477047430070B50022B4
:100D9000002401212523C35C022B03D00422C2635B
:100DA000012418E003681D680E26B5431D60036822
:100DB0001D688D431D604423C35C3C251D400123F9
:100DC000AB40056C6B602523C15424214254816BD8
:100DD000002900D08847200070BD704710B5C200C0
:100DE00018231340FF249C40E2438907090E9940D1
:100DF000030004D41A489B089B00C01806E0194B56
:100E00000007000F083880088000181803681A408F
:100E10001143016010BD80B5FFF7E0FF01BD010087
:100E200005D40121C006C00E81400F480160704703
:100E300010B5401E80214904884201D3012010BD15
:100E40000A4C606003210020C043FFF7C7FF002069
:100E5000A0600721216010BD80B500F009F801BD38
:100E600000E400E01CED00E000E100E010E000E044
:100E700070477047F0B586B002007E4800920022AD
:100E80000EE0130423610AE02B00039D1D43A560BF
:100E9000009B9025ED05AB42E368F2D12261521C24
:100EA0000B68D34000D1E3E0DB07F8D54B68022B99
:100EB00001D0122B0ED1009BD408A4001B191C6A70
:100EC00096001C2535400F26AE40B4430E69AE4057
:100ED00026431E62009B1D68530003269E40F44378
:100EE00025400E79B607B60F9E402E43009D2E601A
:100EF0004D68012D05D0022D03D0112D01D0122DEA
:100F000014D1009DAD682C40CD689D402543009BC9
:100F10009D60009B5C68012301259540AC434D68B2
:100F20002D092B4093402343009C63608B68009CF9
:100F30009025ED05AC421DD1002B03D0022B11D022
:100F400008D334E00C68E34304681C400460446840
:100F500023400DE00B6844689C43446004682343CD
:100F6000036024E00B6804689C43046044682343E6
:100F700043601CE0002B03D0022B11D008D316E0F5
:100F80000C68E34384681C408460C46823400DE01F
:100F90000B68C4689C43C46084682343836006E094
:100FA0000B6884689C438460C4682343C3604D68B5
:100FB000EB0000D473E700232F4C246801269640F1
:100FC000049636040396F64302962D098026760190
:100FD0003540954001279740FE430196009E90279B
:100FE000FF05BE4202D1019E264002E0029E26403D
:100FF0002D043543204C25604D680595ED031DD427
:101000006568009EBE4201D1019E00E0029E2E4016
:10101000059FC025AD033D40C027BF03BD420CD195
:101020000123A660009D9027FF05BD4202D1350037
:10103000049E01E03500039E2E436660A568002BE8
:1010400000D024E79023DB05009E9E4202D12E00B3
:10105000019D01E02E00029D35404E68F60200D44D
:1010600015E7009E9E4200D00EE72B00049D0DE781
:1010700006B0F0BD200050480C00004010B5C20082
:1010800018231340FF249C40E2438907090E99402E
:10109000030004D45F489B089B00C01806E05E4B29
:1010A0000007000F083880088000181803681A40ED
:1010B0001143016010BD000081B058480168022250
:1010C0000A430260002102E000BF0099491C009120
:1010D00000990629F8DB016804220A43026001B086
:1010E000704780B54E480068002811D14D4800680F
:1010F00000280DD001204C49886000F063FEBFF34A
:101100004F8F4A484A490860BFF34F8F00BFFDE741
:10111000012002BD80B503210020FFF7AFFF0321AE
:101120000120FFF7ABFF03210220FFF7A7FF0321F8
:101130000320FFF7A3FF03210420FFF79FFF0321F4
:101140000520FFF79BFF03210620FFF797FF0321F0
:101150000720FFF793FF03210820FFF78FFF0321EC
:101160000920FFF78BFF03210A20FFF787FF0321E8
:101170000B20FFF783FF03210C20FFF77FFF0321E4
:101180000D20FFF77BFF03210E20FFF777FF0321E0
:101190000F20FFF773FF03211020FFF76FFF0321DC
:1011A0001120FFF76BFF00211220FFF767FF0321DB
:1011B0001320FFF763FF03211420FFF75FFF0321D4
:1011C0001520FFF75BFF03211620FFF757FF0121D2
:1011D0001720FFF753FF00211820FFF74FFF0321CF
:1011E0001920FFF74BFF01BD30B50D00AE4C002AB2
:1011F0000AD0FA21890000F0E7FD401E68436060D4
:101200000020A060052002E02068012188432060C2
:1012100030BD000000E400E01CED00E008004048A4
:101220009400404810005048040000200400FA05D3
:101230000CED00E0FEB50121002819D09B480368A1
:10124000E024A34320241C430460836D0624A343AD
:1012500002241C438465836B0B438363836B8B4342
:101260008363836D0B438365806D08400090009815
:101270000F238F4804698F4DAC4213D10468056871
:10128000066802685202520F029200684001420F43
:101290000091300C18402E0AF0253540240A1C40DD
:1012A000019404E008200190702500240094824CF1
:1012B0000F26F643276B374038432063E06AF02758
:1012C000B8430543E562E06A064001983043E062B6
:1012D0003820009D002D0DD025680726B543029EBD
:1012E0007607760F2E43266025688543D20002409C
:1012F0002A4322603F22D243A56F15400A262E437F
:10130000A667A56F40262E43A667E56F1540042605
:101310002E43E667E56F80262E43E667E56F40269D
:10132000B543E567654D2E6816402E606E68164021
:10133000102737436F60AE68164020273743AF60F1
:10134000EE68164030273743EF602E691640304371
:10135000286168691040392606436E61A86910400B
:101360003A260643AE61E86910403B260643EE612B
:10137000286A10403C2606432E62686A02403D20DF
:10138000104368625522FF25ED43B64806682E409B
:1013900016430660C6682E4066273743C760066A54
:1013A0002E4032430262026C2A401D261643066418
:1013B000C26B2A4059261643C663426C15402D2243
:1013C0002A434264426A0A4342628A0715681268E5
:1013D000F0262E4013403343202B63D3A24A1170D2
:1013E0005E235370236B9370D1705D231371E36A96
:1013F00053710623009D002D05D091715223D371A6
:10140000236813720923D1545B1C1224DDB2545596
:101410005B1C0468DDB254555B1CDDB251555B1C8E
:101420001524DDB254555B1CC468DDB254555B1CF9
:10143000DDB251555B1C1A24DDB254555B1C046AA5
:10144000DDB254555B1CDDB251555B1C2224DDB26C
:1014500054555B1C046CDDB254555B1CDDB2515518
:101460005B1C2124DDB254555B1CC46BDDB25455AA
:101470005B1CDDB251555B1C2324DDB254555B1C53
:10148000446CDDB254555B1CDCB211555B1C1B2156
:10149000DCB211555B1C406AD9B2505400205B1C71
:1014A000DBB2D054F7BD000010E000E00800404877
:1014B000E81E0010CCECBCFC48160060E81600608A
:1014C000F3B581B08020C00501680068F0220A40B1
:1014D0000007000F10430090644E01226421300089
:1014E000FFF782FE624D286880214902014329608E
:1014F0000027604C2868800303D42068C003F9D516
:101500000427002200210020FFF76EFE380034D1AE
:1015100068460079002804D1009810286AD1062076
:10152000FEBDE020C04369460979491E062950D80E
:1015300001A2525C974400BF08465462707E8C0042
:10154000A9680840A86070004B4E30600122C82195
:10155000FFF74AFE28688021890101432960286835
:10156000400403D42068C003F9D5052700220021D8
:101570000020FFF739FE38002CD03800FEBDA968E6
:10158000084020210143A9603000DDE7A968084038
:1015900040210143A9607008D6E7A968084060218E
:1015A0000143A960B008CFE7A96808408021014342
:1015B000A960F008C8E7A9680840A0210143A96014
:1015C0003009C1E7A9680840C0210143A96070093A
:1015D000BAE7FEE73021C9439F4832689F4B9A42E1
:1015E000026804D1114010220A43026004E0114055
:1015F000016001E0FFF760FD6846007AFF2822D015
:101600000621C943012803D06A461279032A06D16C
:10161000286E0140042008432866012004E02A6E59
:10162000114002220A432A66009910290BD18C49E5
:101630006A461279012A08D101280ED12A200860B1
:1016400048680007FCD40020FEBD6A461279022AD1
:1016500005D1012803D12920F1E70028FBD028205B
:10166000EDE70000481500602C0500200048E80167
:101670000000404810E000E0DC040020F3B583B037
:1016800078487949086079490861794F3868E021DC
:1016900001433960002500240122C8217548FFF765
:1016A000A3FD754938690191400704D40868C00357
:1016B000F8D5012401252E0025000022002100205C
:1016C000FFF792FD6D4C002D2ED030002BD1002560
:1016D0000122962149006748FFF786FD6848796A2C
:1016E00001407962B96A0840B862A0686549014062
:1016F000802000020843A060E06860210143E160AF
:1017000020681021014321602068800604D40198DC
:101710000068C003F8D50225002200210020FFF751
:1017200063FD280074D095E0A068574901408020EF
:10173000C0000843A060B8693021884320210143DC
:10174000B961A068802149010143A1604F4A5069F5
:101750004F49884219D110681168156813681B0435
:101760001B0F0293136801221E02FC239B053340CA
:10177000EE091E2535400095CD01E0218901294063
:101780008501F0208000284007E0D00CC0214901ED
:1017900010220092F0235B050022E5683D4E2E40AA
:1017A0003343E360E36880252D041D43E5601E2379
:1017B000DB43002A09D0E2681A40029D6D00154300
:1017C000E560E26801251543E560334A15682B4062
:1017D000009D1D431560136801251D4315601368A6
:1017E0002E4D1D40284310601068202303431360D2
:1017F00010682B4B03401943116010688021C90009
:1018000001431160B869802149000143B9615EE775
:101810006846047CFF2C02D00120FFF70BFD6846D0
:10182000007B204980220A600A681F4B13408022F7
:1018300092011A430A600A6870239A4330231343C3
:101840000B602100FFF73CFE010003D1FFF762FCB3
:1018500062B6002005B0F0BD041000400090D00337
:10186000005000400000041008ED00E004000020DB
:10187000040050480024F40010E000E0000040485C
:10188000FFCFFFFFFF7FFEFFFFF3FFFFE41E00100F
:10189000CCECBCFCFFFFFFC0940050483FFCFFFFB6
:1018A000FFC7FFFF98004048FFC0FFFF7047704729
:1018B00010B50024032000F0A3FA002801D0012471
:1018C00001E0FFF718F9200010BD704781B0824990
:1018D0000A6802430A60096808400090009801B055
:1018E000704710B50B004B4301685C00E418A1433E
:1018F00053430B43036010BD43688B43514319436B
:101900004160704710B50B004B4381685C00E418E0
:10191000A14353430B43836010BD30B5CB436F4CA1
:101920009025ED05A8421AD1002A03D0022A0FD033
:1019300007D330BD206818402060606803406360B2
:1019400030BD60680340636020680143216030BDA2
:1019500020680340236060680143616030BD002A55
:1019600003D0022A0FD007D330BDA0681840A06072
:10197000E0680340E36030BDE0680340E360A068D6
:101980000143A16030BDA0680340A360E06801434B
:10199000E16030BD10B5090A0B004B434B434B438C
:1019A000416A1C01E41AA14353430B43436210BD37
:1019B0007CB506000420FFF789FF9025ED05802403
:1019C000A400022221002800FFF78BFF0222210041
:1019D0002800FFF797FF002221002800FFF78CFF67
:1019E000012221002800FFF798FF00222100280093
:1019F000FFF7D0FF0420FFF769FF640802222100EF
:101A00002800FFF76EFF022221002800FFF77AFF6F
:101A1000002221002800FFF76FFF0122210028008B
:101A2000FFF77BFF002221002800FFF7B3FFA00093
:101A30002B490A6802430A60096808400090009830
:101A400028488B21C1600168274A0A40026041682A
:101A5000264A0A40426001680C220A4302608168FB
:101A6000234A0A4082608168224A0A408260816873
:101A7000C900C9088160016862050A4302604168C3
:101A80001D4A0A40426081682A22914381600168B0
:101A900001220A43026031000ED018490E6001682D
:101AA00020220A43026016480168FF229143402227
:101AB0000A4302601348046073BD10B50023124A44
:101AC00006E014682406FCD5DCB2045DD4605B1C1F
:101AD000DCB28C42F5D310BD500040482000504885
:101AE0005800404800400041FFE9FFEFFFCFFFFFF3
:101AF000FFFCFFFFFFFFFFF1FFB7FFFF28050020FE
:101B000008E400E000E100E01C40004170B5002561
:101B1000012804D0022802D00020C04370BD002953
:101B200001D1002070BD0C00160005E0012120004D
:101B3000FFF7C3FF641C6D1C3000461E0028F5D162
:101B4000280070BD01B5012269460120FFF7DEFFC4
:101B5000009802BD70B5020040325378202B14D19A
:101B60004023C35C012B10D0012313702424547034
:101B7000046825689D43256004682568164E2E403C
:101B800026600468256829431CE0022070BD70B5FA
:101B9000020040325378202B12D14023C35C012B2A
:101BA0000ED00123137024245470046825689D43CB
:101BB000256004682568094E2E400902314301E082
:101BC000022070BD2160006801680B430360202083
:101BD00050700020107070BDFFEFFFFFFFF0FFFF9F
:101BE00081B067490A6802430A60096808400090AA
:101BF000009801B0704710B50B004B4301685C00C2
:101C0000E418A14353430B43036010BD43688B4367
:101C1000514319434160704710B50B004B43816835
:101C20005C00E418A14353430B43836010BD30B5FF
:101C3000CB43544C9025ED05A8421AD1002A03D07D
:101C4000022A0FD007D330BD20681840206060689A
:101C50000340636030BD60680340636020680143F7
:101C6000216030BD206803402360606801436160EB
:101C700030BD002A03D0022A0FD007D330BDA068A0
:101C80001840A060E0680340E36030BDE0680340B6
:101C9000E360A0680143A16030BDA0680340A36079
:101CA000E0680143E16030BD38B5010018D104207F
:101CB000FFF796FF9024E4054020A0610122402117
:101CC0002000FFF798FF022240212000FFF7A4FF29
:101CD000002240212000FFF799FF0122402121E04E
:101CE000294C012805D10820FFF77AFF80256D00D7
:101CF00006E0022819D10820FFF772FF8025AD0009
:101D0000A561012229002000FFF775FF02222900AA
:101D10002000FFF781FF002229002000FFF776FF57
:101D2000012229002000FFF782FF31BD010002D10E
:101D30004020164909E01649012802D180204000C0
:101D400003E0022802D18020800008607047010073
:101D500005D11048016840224A40026070470E4990
:101D6000012803D108688022520004E0022804D12F
:101D700008688022920042400A607047000000001C
:101D800050004048200050480000104828000048FB
:101D90002800104814000048140010480EB4C0B5C4
:101DA000020003A801900020009001AB012104482B
:101DB00078440C3000F04AF8029906B0084700BF9A
:101DC0003708000070477047094214D088420FD38B
:101DD0000122030C01D100041204002300185B410E
:101DE0008B4200D35B1A5241F8D3190010007047A0
:101DF00001000020704708B500F0D6FA08BD704712
:101E0000F8B506000024104DA868002818D000F08E
:101E1000CDFA0700FA208000A968FFF7D5FF01007E
:101E20003800FFF7D1FFFFF703F8002808D1042E90
:101E300006D231000020C043FEF7EDFF6E6000E0E7
:101E400001242000F2BD00BF5C030020F0B597B074
:101E5000050016001F001C986A460023002418C2C3
:101E6000059104A92B2288540B9303950F960EE03D
:101E700023000F9A04A9039800F07AFA002800D5ED
:101E8000D8E001E0F4D501240F9800190F900F98C5
:101E90000078252809D10020089009900A90022492
:101EA0000821029104210F9D0CE06A460021C943DC
:101EB0000F9800F0AFFA0400E4D10B98BCE00200E8
:101EC000012010436D1C2A78202AF8D0232A0AD03A
:101ED0002B2A04D02D2A04D0302A07D009E0204331
:101EE000F0E70843EEE702000820EAE702001020CE
:101EF000E7E72A2A0CD13B681A681B1D3B600D924C
:101F0000002A03D553420D93014308006D1C14E0D1
:101F100000210D91004A0BE0CBCCCC0C0D9B9342E1
:101F200005DA9E00F3185B00591830390D916D1CCD
:101F300029780B00303B0A2BF0D329782E2903D0C7
:101F40000021C9430C9125E06D1C29782A2906D16E
:101F500039680A68091D39600C926D1C1AE02D2938
:101F600002D12D236D1C00E0002300210C910CE018
:101F7000002B09D10C9AB84EB24205DA9600B2187D
:101F80005200511830390C916D1C29780A00303AF2
:101F90000A2AEDD304A908852E783100AFA000F0FD
:101FA00041FA002801D06D1C00E0002604A82A2177
:101FB0004654405C682807D12878682804D16220FC
:101FC00004A92A2288546D1C11A807902A78681C3D
:101FD0000F90252A13D0582A4FD0632A00D1B1E0A0
:101FE000642A79D0692A77D06F2A46D0702A3BD0EC
:101FF000732A0AD0752A40D0782A3ED0ABE001205F
:102000000890252011A90870AFE038680468001D09
:1020100038600694002C14D104A82B21405C0028C1
:102020000CD00024E44300BF8EA000F005FA201A73
:1020300000D19AE00020C04317B0F0BD90A00690F8
:1020400093E00C9D002D03D5200000F019FA09E063
:102050002A000021200000F01BFA002801D0001BFC
:1020600000E02800099080E038680168001D3860B1
:10207000049111A80690782160E004AB2A20185C36
:10208000622803D0682807D06C280BE039680868FC
:10209000091D3960C0B209E039680868091D396056
:1020A00080B203E039680868091D39600490188D12
:1020B0000299C0B208423CD00498002839D02020B0
:1020C0001043782835D1089811A930230B54401CAF
:1020D000431C08930A542CE004AB2A20185C6228A5
:1020E00003D0682807D06C280BE039680868091D00
:1020F000396040B209E039680868091D396000B2EA
:1021000003E039680868091D39600490002802D589
:1021100008982D2109E0188D204202D008982B2123
:1021200003E0C00705D50898202111AB1954401CC5
:10213000089011A8089940180690110004A800F012
:10214000A0F812E00120089038680168001D38608E
:1021500011A8017009E001200890252011A908703C
:10216000100002D0089411A842700D980899401AE6
:102170000A99401A0999401A109004A82821405C35
:10218000400713D4202069460872109800280DDDFE
:10219000109C039D012302AA04A9280000F0E8F87E
:1021A000002800D046E7641EF4D10395089D11ACC9
:1021B000002D0ED0039E21780598B0470590002889
:1021C00000D137E70B98401C0B90641C6D1EF2D1B8
:1021D00003963020694608720A9C002C0CDD039D92
:1021E000012302AA04A9280000F0C2F8002800D0A8
:1021F00020E7641EF4D10395069C099D002D0ED0A6
:10220000039E21780598B0470590002800D111E77A
:102210000B98401C0B90641C6D1EF2D1039604A811
:102220002821405C400700D431E62020694608722E
:102230001098002800DC2AE6109C039D0F9E0123C5
:1022400002AA04A9280000F093F8002800D0F1E6C3
:10225000641E00D109E6F2E7CBCCCC0C686C747A32
:102260004C0000007072696E74665F733A206261A0
:102270006420257320617267756D656E74000000BF
:102280000000F0B583B00A00C4686F2901D10825A9
:1022900006E020211143782901D00A2500E010250D
:1022A000182701680E00642A01D0692A03D1002989
:1022B00001D571420E00002E0CD1016A002909D10E
:1022C000082D31D12821415C09072DD51727302150
:1022D000E17529E00290684602707F1E0197300088
:1022E0002900FFF771FD3031C8B23A2803DB684698
:1022F000007851380918E15530002900FFF764FDD6
:10230000060004D002988068E1198842E5D302985B
:10231000082D09D12821415C090705D5E15D302947
:1023200002D07F1E3021E1551821C91B4161E219FD
:102330008260026A914206DA511A8161018D0B4A6C
:102340000A40028510E0002A0ED52822825C142360
:102350001340102B08D1426A0369D21A8369D21A3A
:10236000511A012900DB816103B0F0BDEFFF0000CD
:10237000F8B50024002B11D007000E0014001D003A
:1023800021787068B8477060002809D0F069401C57
:10239000F0610020641C6D1EF2D104002000F2BD2B
:1023A0000020C043F9E77047704770470148006854
:1023B00070470000DC04002030B45368D41803E0F8
:1023C0005B1C491E641C401C042B06DA002904D047
:1023D000057825700578002DF2D1536030BC704728
:1023E00038B500290ED01D001400FFF7E5FF616825
:1023F00020006A6B90470122D243811A02D0491E05
:1024000002D004E0012000E00020C04332BD0021E2
:10241000616032BD80B5024BFFF7E2FF02BD0000F4
:10242000E0040020C9B202788A4203D0401C002A8E
:10243000F9D100207047704780B5002801D100BF56
:1024400007A006490B68002B03D0222200219847E1
:1024500001E000F028F8222002BD00004C05002019
:10246000636F6E73747261696E742068616E646C00
:1024700065723A20626164206D65737361676500FF
:10248000431C0178401C0942FBD1C01A70477047B9
:10249000C9B2521E05D30378401C8B42F9D1401EAD
:1024A00070470020704780B5012000F001F801BDA1
:1024B00080B500BF00BF024A11001820ABBEFBE789
:1024C0002600020054686520626F617264207265A4
:1024D00063656976657320746865206D65737361E3
:1024E000676520616E642073656E64732069742073
:1024F0006261636B2E0A0D005374617274207468FC
:1025000065207472616E736D697373696F6E20708C
:10251000726F636573732E0A0D000000436F6D7058
:10252000617265207468652073656E7420616E64E5
:10253000207265636569766564206275666665729A
:10254000733A0A0D0000000010B5074979441831AC
:10255000064C7C44163404E0081D0A688918884734
:102560000100A142F8D110BD3C000000580000005D
:1025700080B500F00FF8FEF76FFC01BD10B5044CFC
:102580002000FDF749FE2000FDF750FE10BD0000C1
:10259000680300200248016882688918016070475A
:1025A0005C030020E3E5FFFF0401000014000000CD
:1025B000C0000020D3E5FFFF90000000AA0000004B
:1025C0005C030020FEF78DFD002801D0FFF7BCFF63
:1025D00000BF00BF002000BF00BFFEF713FB00F0EC
:1025E00000F880B500F002F801BD70470746384694
:1025F000FFF75EFFFBE738B505000C002000FFF792
:10260000A1FAA04200D00025280032BD00BF00BFC3
:1026100000BF00BFFFF7D6FF0078401E8041C043D7
:10262000C00F7047704770477047704770477047DA
:1026300070477047704770477047704770477047E2
:102640007047704770477047120001120405F33D50
:1026500001000113202A0110204932435F54776F93
:10266000426F6172647320636F6D6D756E69636133
:1026700074696F6E20626173656420092349542B6D
:10268000F2512031F2840001F4051F90D0038A0D2D
:1026900004108060021926041033F11F3C00000072
:1026A000000000000000000000000000F2FF000138
:0626B000F1FF01F16A01D7
:040000051004260DB0
:00000001FF
